[gd_scene load_steps=4 format=2]

[ext_resource path="res://Scripts/Ball.vs" type="Script" id=1]
[ext_resource path="res://Sprites/Ball.png" type="Texture" id=2]

[sub_resource type="CircleShape2D" id=1]

[node name="Ball" type="Node2D"]
script = ExtResource( 1 )

[node name="RigidBody2D" type="RigidBody2D" parent="."]

[node name="Sprite" type="Sprite" parent="RigidBody2D"]
position = Vector2( -9.53674e-007, 0 )
scale = Vector2( 0.625, 0.625 )
texture = ExtResource( 2 )

[node name="CollisionShape2D" type="CollisionShape2D" parent="RigidBody2D"]
shape = SubResource( 1 )
