[gd_scene load_steps=6 format=2]

[ext_resource path="res://Scripts/Moving Platform.vs" type="Script" id=1]
[ext_resource path="res://Sprites/Moving-Platform-1.png" type="Texture" id=2]
[ext_resource path="res://Sprites/Moving-Platform-2.png" type="Texture" id=3]

[sub_resource type="RectangleShape2D" id=2]
extents = Vector2( 40, 8 )

[sub_resource type="SpriteFrames" id=1]
animations = [ {
"frames": [ ExtResource( 2 ), ExtResource( 3 ) ],
"loop": true,
"name": "default",
"speed": 1.0
} ]

[node name="Moving Platform" type="KinematicBody2D"]
script = ExtResource( 1 )

[node name="CollisionShape2D" type="CollisionShape2D" parent="."]
shape = SubResource( 2 )

[node name="AnimatedSprite" type="AnimatedSprite" parent="."]
position = Vector2( -2.38419e-007, 1.78814e-007 )
scale = Vector2( 1, 1 )
frames = SubResource( 1 )
playing = true

[node name="AnimatedSprite2" type="AnimatedSprite" parent="."]
position = Vector2( 16, -1.42109e-014 )
scale = Vector2( 1, 1 )
frames = SubResource( 1 )
playing = true

[node name="AnimatedSprite3" type="AnimatedSprite" parent="."]
position = Vector2( 32, 0 )
scale = Vector2( 1, 1 )
frames = SubResource( 1 )
playing = true

[node name="AnimatedSprite4" type="AnimatedSprite" parent="."]
position = Vector2( -16, 2.84217e-014 )
scale = Vector2( 1, 1 )
frames = SubResource( 1 )
playing = true

[node name="AnimatedSprite5" type="AnimatedSprite" parent="."]
position = Vector2( -32, 2.84217e-014 )
scale = Vector2( 1, 1 )
frames = SubResource( 1 )
playing = true
